{
  "experiments": [
    {
      "description": "Quiet thresholds for pure tones",
      "title": "n-AFC",
      "url": "http://74.109.252.140:5051/nafc",
      "ready": true
    },
    {
      "description": "Lateralization of pure tones",
      "title": "Lateralization",
      "url": "",
      "ready": false
    },
    {
      "description": "Speech",
      "title": "Spech",
      "url": "",
      "ready": false
    }
  ]
}
